#      Emp No   Last Name  First Name      Status        Type     Annual 
#-----------------------------------------------------------------------
        1000      Wallis        Greg      Former        1099       30000
        1001    Gregoire        Marc     Current        1099      100000
        1002         Doe        John     Current          W2       11000
